518	4
899	3
372	1
355	2
909	2
786	1
259	1
238	1
186	1
158	1
980	2
960	1
79	2
344	3
859	1
214	1
537	2
617	2
388	2
134	1
268	2
266	4
52	1
370	2
403	1
985	1
653	1
215	1
244	2
957	3
358	1
650	1
929	1
334	3
933	2
280	1
586	1
44	1
626	1
395	4
821	2
935	3
71	2
819	1
972	2
606	1
421	1
886	5
346	1
664	1
462	1
971	2
540	1
352	3
144	1
97	1
226	1
854	4
799	1
142	1
366	1
408	1
231	1
579	1
900	4
541	1
26	2
652	1
37	1
651	1
513	1
657	2
787	1
520	2
237	2
183	1
429	1
718	4
766	3
428	1
427	2
847	1
838	2
232	2
279	3
688	1
432	1
885	1
934	3
593	2
553	1
171	2
762	2
309	2
101	1
318	1
542	1
91	2
689	2
112	2
412	1
779	1
711	2
469	1
275	2
623	1
456	1
63	2
84	1
890	1
121	3
474	1
673	2
748	2
23	2
297	2
20	1
362	1
525	1
107	1
129	1
816	2
274	1
958	1
420	1
201	1
179	3
194	1
865	2
480	1
884	2
484	1
827	2
483	2
841	1
802	1
751	1
95	1
850	2
585	2
416	3
164	2
146	2
108	1
913	1
234	1
564	2
100	1
220	1
915	3
374	1
966	2
472	1
137	1
261	2
335	1
405	1
703	1
250	2
435	1
504	2
570	1
18	1
153	2
944	1
989	1
726	2
384	1
658	1
739	1
86	1
815	2
609	3
937	2
955	2
902	1
154	1
8	1
925	2
439	1
724	1
203	2
481	1
905	1
367	2
729	1
945	2
998	1
931	1
399	4
575	2
807	1
302	1
578	3
536	1
104	1
926	3
22	1
784	1
995	3
502	1
543	1
668	2
785	1
868	1
835	1
143	1
528	3
246	1
639	2
12	1
666	2
999	1
519	1
940	1
270	1
5	1
382	1
219	1
671	1
16	1
228	1
139	1
68	1
284	1
870	1
687	3
406	1
418	1
162	4
856	2
291	1
345	1
892	2
465	1
397	1
867	1
979	1
621	1
127	2
450	1
983	1
243	1
891	3
375	3
98	2
188	2
176	2
758	1
140	2
592	1
684	1
77	2
792	2
128	2
769	3
601	2
745	1
478	1
514	1
962	3
441	3
169	1
772	1
359	1
177	1
754	1
788	1
267	1
591	1
984	1
554	1
670	3
628	2
93	3
916	2
294	1
409	3
320	2
590	2
600	1
806	1
836	1
200	3
878	1
254	2
262	3
961	1
727	1
876	1
887	1
686	1
883	1
690	3
354	1
920	1
532	1
737	1
25	3
454	1
939	1
862	1
471	1
10	1
229	2
457	2
306	3
895	1
991	2
612	1
290	2
774	1
803	3
875	2
763	2
364	1
369	1
466	1
740	1
881	3
904	2
831	1
796	3
430	1
248	1
381	1
349	2
832	2
659	3
629	3
161	1
442	2
326	1
981	1
770	1
145	2
852	1
340	1
147	1
72	2
76	1
530	2
813	1
73	1
258	2
742	2
217	1
963	1
298	2
834	3
954	1
632	2
168	2
347	1
74	3
994	1
479	2
810	2
163	2
646	1
36	1
845	1
448	2
997	1
361	1
32	1
69	1
155	2
677	2
257	2
699	1
879	3
534	1
269	1
855	1
710	1
662	3
426	1
826	2
794	2
43	1
7	1
968	2
45	1
764	2
467	3
422	1
969	6
210	1
193	1
775	1
233	1
135	1
377	1
678	1
548	1
67	2
988	2
242	2
46	3
648	3
610	1
588	1
438	1
130	1
767	2
148	1
390	3
818	1
253	2
265	1
14	1
820	1
310	2
41	2
295	3
447	1
460	2
90	1
539	1
4	3
198	2
636	2
685	2
414	2
521	1
38	1
615	2
889	1
48	2
400	2
240	3
55	3
597	1
300	1
734	1
453	1
313	2
844	2
842	1
118	1
869	1
864	1
863	1
65	2
236	1
319	1
292	4
289	1
898	1
605	1
858	1
331	1
209	2
746	1
771	1
649	1
371	1
571	1
85	1
507	5
725	2
28	1
172	2
122	2
230	3
170	4
491	2
676	1
411	2
517	2
117	2
82	1
6	1
111	1
392	3
404	1
722	1
948	2
278	3
343	1
31	5
458	2
325	1
822	2
225	2
138	1
475	2
277	4
64	1
808	2
603	1
287	2
239	1
503	1
223	1
181	3
736	2
908	4
311	1
208	4
182	2
594	2
682	1
216	3
202	4
853	1
315	2
828	1
798	1
505	2
681	1
54	1
500	1
391	1
509	1
58	2
633	1
840	2
825	3
49	1
975	1
717	2
811	1
327	3
791	2
723	2
611	1
396	2
529	1
498	3
577	2
515	4
551	1
750	1
627	2
417	1
741	1
212	2
753	1
567	1
596	1
522	2
499	1
99	1
953	1
440	1
679	2
156	1
719	2
251	1
857	1
493	3
848	1
757	3
89	1
368	2
918	1
33	3
630	2
667	1
175	3
782	1
373	1
149	1
273	2
576	1
837	2
195	2
967	1
800	1
53	3
119	2
227	2
910	1
663	2
34	1
433	2
109	1
312	1
2	1
166	1
51	1
733	2
252	1
423	1
914	1
691	1
897	1
126	3
949	2
947	3
817	1
695	1
707	1
321	1
66	2
314	1
760	1
930	1
329	1
964	1
656	3
669	1
407	1
342	1
473	2
851	3
324	1
559	1
35	3
581	1
506	2
776	2
755	3
544	1
572	1
150	1
882	2
982	1
296	1
281	1
350	1
533	2
777	2
896	1
